…
<script src="{{< blogdown/postref >}}index_files/header-attrs/header-attrs.js">

Describe what we’re going to try and do

library(ffscrapr)

Do something here with the league connection

league <- sleeper_connect(season = 2021, league_id = 649923060580864000)

rosters <- ff_rosters(league)
print(rosters)

## # A tibble: 375 x 7
##    franchise_id franchise_name  player_id player_name      pos   team    age
##    <chr>        <chr>           <chr>     <chr>            <chr> <chr> <dbl>
##  1 1            ChristyCampbell 6068      Devine Ozigbo    RB    JAX    24.4
##  2 1            ChristyCampbell 1848      James White      RB    NE     29.1
##  3 1            ChristyCampbell 6918      Salvon Ahmed     RB    MIA    22.2
##  4 1            ChristyCampbell 5967      Tony Pollard     RB    DAL    23.9
##  5 1            ChristyCampbell 4046      Patrick Mahomes  QB    KC     25.5
##  6 1            ChristyCampbell 6007      Ryquell Armstead RB    JAX    24.4
##  7 1            ChristyCampbell 6063      Tyron Johnson    WR    LAC    25.2
##  8 1            ChristyCampbell 4622      Keelan Cole      WR    JAX    27.9
##  9 1            ChristyCampbell 5026      Tre'Quan Smith   WR    NO     25.2
## 10 1            ChristyCampbell 5889      Bryce Love       RB    WAS    23.7
## # … with 365 more rows
…
